{
  "project_info": {
    "project_number": "494274952026",
    "firebase_url": "https://rizalsanbercodeapp-22ec7.firebaseio.com",
    "project_id": "rizalsanbercodeapp-22ec7",
    "storage_bucket": "rizalsanbercodeapp-22ec7.appspot.com"
  },
  "client": [
    {
      "client_info": {
        "mobilesdk_app_id": "1:494274952026:android:87944aabfc4080aef05163",
        "android_client_info": {
          "package_name": "com.rizalsanbercodeapp"
        }
      },
      "oauth_client": [
        {
          "client_id": "494274952026-hgenlpsjbihugpommv1l1mm06rspbd14.apps.googleusercontent.com",
          "client_type": 3
        }
      ],
      "api_key": [
        {
          "current_key": "AIzaSyBYZnepYsWQ3VMpGYqJ9YCqRXjWk4Omxhw"
        }
      ],
      "services": {
        "appinvite_service": {
          "other_platform_oauth_client": [
            {
              "client_id": "494274952026-hgenlpsjbihugpommv1l1mm06rspbd14.apps.googleusercontent.com",
              "client_type": 3
            }
          ]
        }
      }
    }
  ],
  "configuration_version": "1"
}